<?xml version="1.0" encoding="UTF-8"?>
<svg height="128px" viewBox="0 0 128 128" width="128px" xmlns="http://www.w3.org/2000/svg" xmlns:xlink="http://www.w3.org/1999/xlink">
    <linearGradient id="a" gradientTransform="matrix(-1.076923 0 0 1 128.615387 -171.999989)" gradientUnits="userSpaceOnUse" x1="8" x2="111.999992" y1="241.999985" y2="241.999985">
        <stop offset="0" stop-color="#d09709"/>
        <stop offset="0.0714286" stop-color="#f5ce6a"/>
        <stop offset="0.142857" stop-color="#e5a50a"/>
        <stop offset="0.857143" stop-color="#e5a50a"/>
        <stop offset="0.928571" stop-color="#f5ce6a"/>
        <stop offset="1" stop-color="#d09709"/>
    </linearGradient>
    <linearGradient id="b" gradientTransform="matrix(-1 0 0 1 128 -171.999989)" gradientUnits="userSpaceOnUse" x1="31.462524" x2="39" y1="285.997253" y2="285.997253">
        <stop offset="0" stop-color="#e5a50a"/>
        <stop offset="0.469318" stop-color="#f5ce6a"/>
        <stop offset="1" stop-color="#e5a50a"/>
    </linearGradient>
    <path d="m 104 28 h -80 c -8.835938 0 -16 7.164062 -16 16 v 52 c 0 8.835938 7.164062 16 16 16 h 80 c 8.835938 0 16 -7.164062 16 -16 v -52 c 0 -8.835938 -7.164062 -16 -16 -16 z m 0 0" fill="url(#a)"/>
    <path d="m 104 28 h -80 c -8.835938 0 -16 7.164062 -16 16 v 48 c 0 8.835938 7.164062 16 16 16 h 80 c 8.835938 0 16 -7.164062 16 -16 v -48 c 0 -8.835938 -7.164062 -16 -16 -16 z m 0 0" fill="#53bde0"/>
    <path d="m 104 100 v 12 h -4 c -2.210938 0 -4 1.789062 -4 4 v 7 c 0 1.992188 -1.183594 3.792969 -3.011719 4.585938 c -1.828125 0.789062 -3.953125 0.417968 -5.40625 -0.945313 l -13.523437 -12.707031 c -1.324219 -1.242188 -3.070313 -1.933594 -4.882813 -1.933594 h -9.175781 v -12 z m 0 0" fill="url(#b)" fill-rule="evenodd"/>
    <path d="m 104 24 h -80 c -8.835938 0 -16 7.164062 -16 16 v 52 c 0 8.835938 7.164062 16 16 16 h 80 c 8.835938 0 16 -7.164062 16 -16 v -52 c 0 -8.835938 -7.164062 -16 -16 -16 z m 0 0" fill="#f6d32d"/>
    <path d="m 104 106 v 2 h -4 c -2.210938 0 -4 1.789062 -4 4 v 7 c 0 1.992188 -1.183594 3.792969 -3.011719 4.585938 c -1.828125 0.789062 -3.953125 0.417968 -5.40625 -0.945313 l -13.523437 -12.707031 c -1.324219 -1.242188 -3.070313 -1.933594 -4.882813 -1.933594 h -9.175781 v -2 z m 0 0" fill="#f6d32d" fill-rule="evenodd"/>
    <g fill="#ff7800">
        <path d="m 56 50 c 0 4.417969 -3.582031 8 -8 8 s -8 -3.582031 -8 -8 s 3.582031 -8 8 -8 s 8 3.582031 8 8 z m 0 0"/>
        <path d="m 88 50 c 0 4.417969 -3.582031 8 -8 8 s -8 -3.582031 -8 -8 s 3.582031 -8 8 -8 s 8 3.582031 8 8 z m 0 0"/>
        <path d="m 38.105469 66.375 c -2.558594 1.046875 -3.78125 3.964844 -2.730469 6.519531 c 4.730469 11.539063 16.070312 19.078125 28.613281 19.105469 h 0.023438 c 12.542969 -0.027344 23.882812 -7.566406 28.617187 -19.105469 c 1.046875 -2.554687 -0.175781 -5.472656 -2.730468 -6.519531 c -2.558594 -1.050781 -5.476563 0.171875 -6.523438 2.730469 c -3.183594 7.757812 -10.816406 12.867187 -19.375 12.894531 c -8.558594 -0.027344 -16.191406 -5.136719 -19.375 -12.894531 c -1.046875 -2.558594 -3.964844 -3.78125 -6.519531 -2.730469 z m 0 0"/>
    </g>
</svg>
